{
    "CIBC_GMT_Rate_Programmatic_EN": [{
        "_id": 0,
        "unique_id": 1,
        "reporting_label": "testing1_300x250",
        "exit_url": {
            "Url": "https://www.cibc.com/en/"
        },
        "frame1img": {
            "Type": "file",
            "Url": "https://s0.2mdn.net/ads/richmedia/studio/60005404/60005404_20200825073946635_blank.png"
        },
        "frame1sender": "Send <b>CAD</b>",
        "frame1receiver": "Receive <b>JMD</b>",
        "receivercode": "JMD",
        "frame1sendnum": "1.00",
        "frame1txt": "Send money to<br /><b>Jamaica</b> at a great rate<br />with a <b>$0</b> transfer fee<sup>1</sup>.",
        "frame1legal": "<sup>1</sup>Conditions apply",
        "frame2img": {
            "Type": "file",
            "Url": "https://s0.2mdn.net/ads/richmedia/studio/60005404/60005404_20200825073946635_blank.png"
        },
        "frame2txt": "Plus, send your first<br />CIBC Global Money<br />Transfer<sup>TM</sup> and get<br /><span>$50</span>.<span><sup>†</sup></span>",
        "frame2legal": "<sup>†</sup>Conditions apply",
        "frame3img": {
            "Type": "file",
            "Url": "https://s0.2mdn.net/ads/richmedia/studio/60005404/60005404_20200825073946635_blank.png"
        },
        "frame3heading": "CIBC GLOBAL MONEY TRANSFER<sup>TM</sup>",
        "frame3text": "Arrives in as little<br />as <b>24 hours</b><sup>1</sup>",
        "frame3text2": "Send up to <b>$30,000</b>",
        "frame3legal": "<sup>1</sup>Conditions apply",
        "cta": "Learn more"
    }]
}